[gd_scene load_steps=2 format=3 uid="uid://cobf7427xdgni"]

[ext_resource type="Script" path="res://addons/gs_ecs_debug/components/debug.gd" id="1_x3048"]

[node name="Debug" type="Node"]
script = ExtResource("1_x3048")
